{
  "type": "service_account",
  "project_id": "miniprojet-263915",
  "private_key_id": "1ee724f2e30ec2890466509d80442265cfab5dc0",
  "private_key": "-----BEGIN PRIVATE KEY-----\nMIIEvAIBADANBgkqhkiG9w0BAQEFAASCBKYwggSiAgEAAoIBAQCkIw3er+FQvxIt\nGdEzbxVG1sCbFpD4jY19LT7wAbUIh/z+xxW2XRToWQNUBGE6EtZfwLI5Dw240ucG\nzkQJOt71EjHNDg+579QJCU3+XVT5siSOijhBMmJtwvt9hKOTbmGoGwBkiv24xr14\nCxtCip9/YbDB/7YXgTDmizCkZRC9zq1IxipTu26qzhgP+h2OlupV8+eRew4pA4Or\nD+ZIrm9byBqHCYU6qh8zOcksYDR4lKEJDTI7rFLyzPVDGfzjSdWpO2cbv3NbLNAx\nOGcuc48PLjjyl1r7K1BmO9YIeF9p9Y1JTBzQ7hgfFLXtQtawi6eiC7VQJglANf/r\n1Bw8R4hDAgMBAAECggEAQVb3CYQIdOVrLesOHaSF2spYqCRml5t6DK+7Uz3KvFeu\nPhowqYUKcqgkrAiGT+D51+pUyGQWuVGzyEDKUsZNxU915cRIPGOdi+9ZTf4HetMQ\nvHGHjWSqTDmHdeMcXu9dDteY4211LV5oRGZfdrDKZ6ITBFdwPJEgT1ZvibH15SjC\n7XiLsbFlkpZ43vSPT67fKZFR1e5nwl0kSM/vBTbrzx7J/4KfarqPQW45mTl/t/A4\nSgekn61KYiQKSAOKtVbeBVXkSDWAylk7BCmKAAGl+X6LonBeAX/8T+qihhfoT6OO\n4j+gOEtKt/m4D1aR4+ZbXiaVh66HLbcygHLQmIx0YQKBgQDW8MDurFmFJ5J+dCOr\nV2la3XcTEqhfOGp/CEwcZNWOZUlDsDqMapnmaswzaC5Qjzkz0PUPUSVOYzsVu8rM\nwuMnpTwH+rVp0+1AfS0zgQ6sEtwWGXfgO/gLFgmf0HvATrR6T1pF9Fzfww21Wxdo\nQJ0iFlchyMr65Ut/ZrI+WZDaMQKBgQDDfdphQ1esz+/ryOcOY9LGroBFMzb9jPE6\nCUZHG1F0kCUBB7pTtoB6SqzitkyhTLC5m4QO8cUZ8CucvmOUy3o+Emc7ReCv5FmF\nlSsAtx8tquunBgZ2f9SwdSaZZZ7tWza5/3bTC5gHqrrJpkT4pIFJGuuULv4zfklg\nqYEd6zh4swKBgDL4MngmrK/Tu3x7I/48o0Il5FfEg+LYqQBowku1aaLzx9TiVG/5\n03b9emDyYpE99W2hLousTXFyPI+h0ayOxnkfSMYHoL9wvwEc7fwZrZYGfuRKs8+b\nyO0wE6YvNTlcMJYUfS67jM6PHZAVAs75C4oKzCy5xdCLUUTr4HbCnIPxAoGAO46V\n/1fC2DUpRM4aBnpG9pynG2307N4Jh8LXlEYwVLCtdVjjXSmWjqs9bHxZcDKrDIDi\nhKMHh1VyE/i04dnzzgFRTe+F+lA5Lcc6KKehagpObL4bLfLX20J1lfotpuZJD/VS\nQA2iLYPIEDMFhDKp6Jm495Yxf4KT3E0HtxO4Sp0CgYBBesdUUjKtZbrI/JW001wU\nSIVs2esVWMLwfo/wkzvxSDMES2tdne39xQBS1Px2xinP0jUn137VVaiqi9WiWpwx\nXR/wrJTMwRDsXDENkXpJDjyiNCyqljcrmJQArljf1YkNTUUpUUn/2YTyzk53V2aS\n9gUD5t0w0lsnre0Jx/k/NA==\n-----END PRIVATE KEY-----\n",
  "client_email": "firebase-adminsdk-rmb44@miniprojet-263915.iam.gserviceaccount.com",
  "client_id": "114641036565853083308",
  "auth_uri": "https://accounts.google.com/o/oauth2/auth",
  "token_uri": "https://oauth2.googleapis.com/token",
  "auth_provider_x509_cert_url": "https://www.googleapis.com/oauth2/v1/certs",
  "client_x509_cert_url": "https://www.googleapis.com/robot/v1/metadata/x509/firebase-adminsdk-rmb44%40miniprojet-263915.iam.gserviceaccount.com"
}
